[
    {
        "id" : "de.grogra.extraLaf",
        "name" : "extraLaf",
        "description" : "A binding for more Swing look and feels to make GroIMP even more beautiful <br>currently:<ul> <li>Darcula by Konstantin Bulenkov (https://github.com/bulenkov/Darcula).</li><li>severak FlatLaf by JFormDesigner (https://github.com/JFormDesigner/FlatLaf/tree/main)</li></ul>",
        "helpUrl": "https://gitlab.com/grogra/groimp-plugins/extraLaf/",
        "vendor": "de.grogra",
        "mainClass": "",
        "versions" : {
            "1.0" : {
                "downloadUrl" : "/home/tim/git/extraLaf/laf.zip",
                "libs" : {
			"flatlaf-3.4.1.jar":"https://repo1.maven.org/maven2/com/formdev/flatlaf/3.4.1/flatlaf-3.4.1.jar",
            "darcula.jar":"https://github.com/bulenkov/Darcula/blob/master/build/darcula.jar"
                },
                "depends" : {
                }
            }
        }
    }
]

